Files/Physics/Lab0/Measurements/ALL0006_noise_Smirnov.csv

Format,1.0B,
Memory Length,10000,Memory Length,10000,Memory Length,10000,
IntpDistance,0,IntpDistance,0,IntpDistance,0,
Trigger Address,4999,Trigger Address,4999,Trigger Address,4999,
Trigger Level,0.000E+00,Trigger Level,0.000E+00,Trigger Level,0.000E+00,
Source,CH1,Source,CH2,Source,Math,
Vertical Units,V,Vertical Units,V,Vertical Units,V,
Vertical Units Div,0,Vertical Units Div,0,Vertical Units Div,0,
Vertical Units Extend Div,16,Vertical Units Extend Div,16,Vertical Units Extend Div,16,
Label, ,Label, ,Label, ,
Probe Type,0,Probe Type,0,Probe Type,0,
Probe Ratio,1.000E+00,Probe Ratio,1.000E+00,Probe Ratio,1.000E+00,
Vertical Scale,1.000E+00,Vertical Scale,5.000E-01,Vertical Scale,5.000E+00,
Vertical Position,1.360E+00,Vertical Position,-1.140E+00,Vertical Position,0.000E+00,
Horizontal Units,S,Horizontal Units,S,Horizontal Units,S,
Horizontal Scale,5.000E-04,Horizontal Scale,5.000E-04,Horizontal Scale,5.000E-04,
Horizontal Position,0.000E+00,Horizontal Position,0.000E+00,Horizontal Position,0.000E+00,
Horizontal Mode,Main,Horizontal Mode,Main,Horizontal Mode,Main,
SincET Mode,Real Time,SincET Mode,Real Time,SincET Mode,Real Time,
Sampling Period,5.000E-07,Sampling Period,5.000E-07,Sampling Period,5.000E-07,
Horizontal Old Scale,5.000E-04,Horizontal Old Scale,5.000E-04,Horizontal Old Scale,5.000E-04,
Horizontal Old Position,0.000E+00,Horizontal Old Position,0.000E+00,Horizontal Old Position,0.000E+00,
Firmware,V1.23,Firmware,V1.23,Firmware,V1.23,
Mode,Detail,Mode,Detail,Mode,Detail,
Waveform Data,,Waveform Data,,Waveform Data,,
-2.500000e-03,0.080000,-2.500000e-03,0.160000,-2.500000e-03,0.200000,
-2.499500e-03,0.040000,-2.499500e-03,0.000000,-2.499500e-03,0.000000,
-2.499000e-03,0.040000,-2.499000e-03,0.020000,-2.499000e-03,0.000000,
-2.498500e-03,0.000000,-2.498500e-03,0.200000,-2.498500e-03,0.200000,
-2.498000e-03,0.000000,-2.498000e-03,0.080000,-2.498000e-03,0.000000,
-2.497500e-03,0.000000,-2.497500e-03,0.000000,-2.497500e-03,0.000000,
-2.497000e-03,0.000000,-2.497000e-03,0.080000,-2.497000e-03,0.000000,
-2.496500e-03,0.000000,-2.496500e-03,0.080000,-2.496500e-03,0.000000,
-2.496000e-03,0.000000,-2.496000e-03,0.120000,-2.496000e-03,0.200000,
-2.495500e-03,-0.040000,-2.495500e-03,0.180000,-2.495500e-03,0.200000,
-2.495000e-03,-0.040000,-2.495000e-03,-0.040000,-2.495000e-03,0.000000,
-2.494500e-03,-0.040000,-2.494500e-03,0.100000,-2.494500e-03,0.000000,
-2.494000e-03,-0.040000,-2.494000e-03,-0.040000,-2.494000e-03,0.000000,
-2.493500e-03,-0.040000,-2.493500e-03,0.020000,-2.493500e-03,0.000000,
-2.493000e-03,-0.080000,-2.493000e-03,0.000000,-2.493000e-03,0.000000,
-2.492500e-03,-0.080000,-2.492500e-03,0.100000,-2.492500e-03,0.000000,
-2.492000e-03,-0.080000,-2.492000e-03,0.040000,-2.492000e-03,0.000000,
-2.491500e-03,-0.080000,-2.491500e-03,0.080000,-2.491500e-03,0.000000,
-2.491000e-03,-0.120000,-2.491000e-03,-0.080000,-2.491000e-03,-0.200000,
-2.490500e-03,-0.120000,-2.490500e-03,0.060000,-2.490500e-03,0.000000,
-2.490000e-03,-0.120000,-2.490000e-03,0.060000,-2.490000e-03,0.000000,
-2.489500e-03,-0.120000,-2.489500e-03,0.060000,-2.489500e-03,0.000000,
-2.489000e-03,-0.120000,-2.489000e-03,0.060000,-2.489000e-03,0.000000,
-2.488500e-03,-0.120000,-2.488500e-03,0.060000,-2.488500e-03,0.000000,
-2.488000e-03,-0.120000,-2.488000e-03,0.040000,-2.488000e-03,0.000000,
-2.487500e-03,-0.120000,-2.487500e-03,0.040000,-2.487500e-03,0.000000,
-2.487000e-03,-0.160000,-2.487000e-03,0.140000,-2.487000e-03,0.000000,
-2.486500e-03,-0.160000,-2.486500e-03,0.000000,-2.486500e-03,-0.200000,
-2.486000e-03,-0.160000,-2.486000e-03,0.100000,-2.486000e-03,0.000000,
-2.485500e-03,-0.160000,-2.485500e-03,-0.040000,-2.485500e-03,-0.200000,
-2.485000e-03,-0.160000,-2.485000e-03,0.020000,-2.485000e-03,-0.200000,
-2.484500e-03,-0.200000,-2.484500e-03,-0.020000,-2.484500e-03,-0.200000,
-2.484000e-03,-0.200000,-2.484000e-03,0.100000,-2.484000e-03,0.000000,
-2.483500e-03,-0.200000,-2.483500e-03,0.040000,-2.483500e-03,-0.200000,
-2.483000e-03,-0.200000,-2.483000e-03,0.060000,-2.483000e-03,-0.200000,
-2.482500e-03,-0.240000,-2.482500e-03,0.040000,-2.482500e-03,-0.200000,
-2.482000e-03,-0.240000,-2.482000e-03,0.100000,-2.482000e-03,-0.200000,
-2.481500e-03,-0.240000,-2.481500e-03,0.140000,-2.481500e-03,0.000000,
-2.481000e-03,-0.240000,-2.481000e-03,0.100000,-2.481000e-03,-0.200000,
-2.480500e-03,-0.240000,-2.480500e-03,0.080000,-2.480500e-03,-0.200000,
-2.480000e-03,-0.280000,-2.480000e-03,0.120000,-2.480000e-03,-0.200000,
-2.479500e-03,-0.280000,-2.479500e-03,0.000000,-2.479500e-03,-0.200000,
-2.479000e-03,-0.280000,-2.479000e-03,0.120000,-2.479000e-03,-0.200000,
-2.478500e-03,-0.280000,-2.478500e-03,0.140000,-2.478500e-03,-0.200000,
-2.478000e-03,-0.320000,-2.478000e-03,0.120000,-2.478000e-03,-0.200000,
-2.477500e-03,-0.280000,-2.477500e-03,0.040000,-2.477500e-03,-0.200000,
-2.477000e-03,-0.320000,-2.477000e-03,0.000000,-2.477000e-03,-0.400000,
-2.476500e-03,-0.320000,-2.476500e-03,0.060000,-2.476500e-03,-0.200000,
-2.476000e-03,-0.320000,-2.476000e-03,0.040000,-2.476000e-03,-0.200000,
-2.475500e-03,-0.360000,-2.475500e-03,0.040000,-2.475500e-03,-0.400000,
-2.475000e-03,-0.320000,-2.475000e-03,0.100000,-2.475000e-03,-0.200000,
-2.474500e-03,-0.360000,-2.474500e-03,0.120000,-2.474500e-03,-0.200000,
-2.474000e-03,-0.360000,-2.474000e-03,-0.020000,-2.474000e-03,-0.400000,
-2.473500e-03,-0.360000,-2.473500e-03,0.100000,-2.473500e-03,-0.200000,
-2.473000e-03,-0.360000,-2.473000e-03,0.100000,-2.473000e-03,-0.200000,
-2.472500e-03,-0.360000,-2.472500e-03,0.080000,-2.472500e-03,-0.200000,
-2.472000e-03,-0.400000,-2.472000e-03,0.020000,-2.472000e-03,-0.400000,
-2.471500e-03,-0.400000,-2.471500e-03,0.000000,-2.471500e-03,-0.400000,
-2.471000e-03,-0.400000,-2.471000e-03,0.080000,-2.471000e-03,-0.400000,
-2.470500e-03,-0.400000,-2.470500e-03,0.100000,-2.470500e-03,-0.200000,
-2.470000e-03,-0.440000,-2.470000e-03,0.020000,-2.470000e-03,-0.400000,
-2.469500e-03,-0.440000,-2.469500e-03,0.040000,-2.469500e-03,-0.400000,
-2.469000e-03,-0.440000,-2.469000e-03,0.060000,-2.469000e-03,-0.400000,
-2.468500e-03,-0.440000,-2.468500e-03,0.060000,-2.468500e-03,-0.400000,
-2.468000e-03,-0.440000,-2.468000e-03,0.040000,-2.468000e-03,-0.400000,
-2.467500e-03,-0.480000,-2.467500e-03,0.040000,-2.467500e-03,-0.400000,
-2.467000e-03,-0.480000,-2.467000e-03,0.060000,-2.467000e-03,-0.400000,
-2.466500e-03,-0.480000,-2.466500e-03,-0.020000,-2.466500e-03,-0.400000,
-2.466000e-03,-0.480000,-2.466000e-03,0.060000,-2.466000e-03,-0.400000,
-2.465500e-03,-0.480000,-2.465500e-03,0.080000,-2.465500e-03,-0.400000,
-2.465000e-03,-0.480000,-2.465000e-03,0.020000,-2.465000e-03,-0.400000,
-2.464500e-03,-0.520000,-2.464500e-03,0.040000,-2.464500e-03,-0.400000,
-2.464000e-03,-0.520000,-2.464000e-03,0.020000,-2.464000e-03,-0.400000,
-2.463500e-03,-0.520000,-2.463500e-03,0.060000,-2.463500e-03,-0.400000,
-2.463000e-03,-0.520000,-2.463000e-03,-0.020000,-2.463000e-03,-0.600000,
-2.462500e-03,-0.520000,-2.462500e-03,0.060000,-2.462500e-03,-0.400000,
-2.462000e-03,-0.560000,-2.462000e-03,0.000000,-2.462000e-03,-0.600000,
-2.461500e-03,-0.560000,-2.461500e-03,0.040000,-2.461500e-03,-0.600000,
-2.461000e-03,-0.560000,-2.461000e-03,0.160000,-2.461000e-03,-0.400000,
-2.460500e-03,-0.560000,-2.460500e-03,-0.040000,-2.460500e-03,-0.600000,
-2.460000e-03,-0.560000,-2.460000e-03,-0.060000,-2.460000e-03,-0.600000,
-2.459500e-03,-0.560000,-2.459500e-03,0.060000,-2.459500e-03,-0.400000,
-2.459000e-03,-0.600000,-2.459000e-03,0.100000,-2.459000e-03,-0.400000,
-2.458500e-03,-0.600000,-2.458500e-03,0.080000,-2.458500e-03,-0.600000,
-2.458000e-03,-0.600000,-2.458000e-03,0.000000,-2.458000e-03,-0.600000,
-2.457500e-03,-0.600000,-2.457500e-03,0.020000,-2.457500e-03,-0.600000,
-2.457000e-03,-0.600000,-2.457000e-03,0.120000,-2.457000e-03,-0.400000,
-2.456500e-03,-0.640000,-2.456500e-03,0.100000,-2.456500e-03,-0.600000,
-2.456000e-03,-0.640000,-2.456000e-03,0.000000,-2.456000e-03,-0.600000,
-2.455500e-03,-0.640000,-2.455500e-03,0.000000,-2.455500e-03,-0.600000,
-2.455000e-03,-0.640000,-2.455000e-03,0.100000,-2.455000e-03,-0.600000,
-2.454500e-03,-0.640000,-2.454500e-03,0.100000,-2.454500e-03,-0.600000,
-2.454000e-03,-0.640000,-2.454000e-03,-0.020000,-2.454000e-03,-0.600000,
-2.453500e-03,-0.680000,-2.453500e-03,0.040000,-2.453500e-03,-0.600000,
-2.453000e-03,-0.680000,-2.453000e-03,0.000000,-2.453000e-03,-0.600000,
-2.452500e-03,-0.680000,-2.452500e-03,0.060000,-2.452500e-03,-0.600000,
-2.452000e-03,-0.680000,-2.452000e-03,0.060000,-2.452000e-03,-0.600000,
-2.451500e-03,-0.720000,-2.451500e-03,0.100000,-2.451500e-03,-0.600000,
-2.451000e-03,-0.720000,-2.451000e-03,0.060000,-2.451000e-03,-0.600000,
-2.450500e-03,-0.720000,-2.450500e-03,0.040000,-2.450500e-03,-0.600000,
-2.450000e-03,-0.720000,-2.450000e-03,0.060000,-2.450000e-03,-0.600000,
-2.449500e-03,-0.720000,-2.449500e-03,0.060000,-2.449500e-03,-0.600000,
-2.449000e-03,-0.760000,-2.449000e-03,0.060000,-2.449000e-03,-0.600000,
-2.448500e-03,-0.760000,-2.448500e-03,0.020000,-2.448500e-03,-0.800000,
-2.448000e-03,-0.760000,-2.448000e-03,-0.020000,-2.448000e-03,-0.800000,
-2.447500e-03,-0.760000,-2.447500e-03,0.080000,-2.447500e-03,-0.600000,
-2.447000e-03,-0.760000,-2.447000e-03,-0.060000,-2.447000e-03,-0.800000,
-2.446500e-03,-0.760000,-2.446500e-03,0.100000,-2.446500e-03,-0.600000,
-2.446000e-03,-0.800000,-2.446000e-03,0.080000,-2.446000e-03,-0.800000,
-2.445500e-03,-0.800000,-2.445500e-03,0.160000,-2.445500e-03,-0.600000,
-2.445000e-03,-0.800000,-2.445000e-03,0.160000,-2.445000e-03,-0.600000,
-2.444500e-03,-0.800000,-2.444500e-03,-0.060000,-2.444500e-03,-0.800000,
-2.444000e-03,-0.800000,-2.444000e-03,-0.020000,-2.444000e-03,-0.800000,
-2.443500e-03,-0.840000,-2.443500e-03,-0.020000,-2.443500e-03,-0.800000,
-2.443000e-03,-0.840000,-2.443000e-03,-0.200000,-2.443000e-03,-1.000000,
-2.442500e-03,-0.840000,-2.442500e-03,0.000000,-2.442500e-03,-0.800000,
-2.442000e-03,-0.840000,-2.442000e-03,0.060000,-2.442000e-03,-0.800000,
-2.441500e-03,-0.840000,-2.441500e-03,0.080000,-2.441500e-03,-0.800000,
-2.441000e-03,-0.840000,-2.441000e-03,0.120000,-2.441000e-03,-0.800000,
-2.440500e-03,-0.880000,-2.440500e-03,0.160000,-2.440500e-03,-0.800000,
-2.440000e-03,-0.880000,-2.440000e-03,0.080000,-2.440000e-03,-0.800000,
-2.439500e-03,-0.880000,-2.439500e-03,0.140000,-2.439500e-03,-0.800000,
-2.439000e-03,-0.880000,-2.439000e-03,0.080000,-2.439000e-03,-0.800000,
-2.438500e-03,-0.880000,-2.438500e-03,0.120000,-2.438500e-03,-0.800000,
-2.438000e-03,-0.920000,-2.438000e-03,0.100000,-2.438000e-03,-0.800000,
-2.437500e-03,-0.920000,-2.437500e-03,0.060000,-2.437500e-03,-0.800000,
-2.437000e-03,-0.920000,-2.437000e-03,0.080000,-2.437000e-03,-0.800000,
-2.436500e-03,-0.920000,-2.436500e-03,0.020000,-2.436500e-03,-0.800000,
-2.436000e-03,-0.920000,-2.436000e-03,0.000000,-2.436000e-03,-1.000000,
-2.435500e-03,-0.920000,-2.435500e-03,0.060000,-2.435500e-03,-0.800000,
-2.435000e-03,-0.960000,-2.435000e-03,0.100000,-2.435000e-03,-0.800000,
-2.434500e-03,-0.960000,-2.434500e-03,0.080000,-2.434500e-03,-0.800000,
-2.434000e-03,-0.960000,-2.434000e-03,0.000000,-2.434000e-03,-1.000000,
-2.433500e-03,-0.960000,-2.433500e-03,0.080000,-2.433500e-03,-0.800000,
-2.433000e-03,-0.960000,-2.433000e-03,0.040000,-2.433000e-03,-1.000000,
-2.432500e-03,-1.000000,-2.432500e-03,0.100000,-2.432500e-03,-0.800000,
-2.432000e-03,-1.000000,-2.432000e-03,0.060000,-2.432000e-03,-1.000000,
-2.431500e-03,-1.000000,-2.431500e-03,0.060000,-2.431500e-03,-1.000000,
-2.431000e-03,-1.000000,-2.431000e-03,0.080000,-2.431000e-03,-1.000000,
-2.430500e-03,-1.000000,-2.430500e-03,0.060000,-2.430500e-03,-1.000000,
-2.430000e-03,-1.040000,-2.430000e-03,0.040000,-2.430000e-03,-1.000000,
-2.429500e-03,-1.040000,-2.429500e-03,0.140000,-2.429500e-03,-0.800000,
-2.429000e-03,-1.040000,-2.429000e-03,0.080000,-2.429000e-03,-1.000000,
-2.428500e-03,-1.040000,-2.428500e-03,0.020000,-2.428500e-03,-1.000000,
-2.428000e-03,-1.040000,-2.428000e-03,-0.020000,-2.428000e-03,-1.000000,
-2.427500e-03,-1.040000,-2.427500e-03,-0.020000,-2.427500e-03,-1.000000,
-2.427000e-03,-1.080000,-2.427000e-03,0.040000,-2.427000e-03,-1.000000,
-2.426500e-03,-1.080000,-2.426500e-03,0.000000,-2.426500e-03,-1.000000,
-2.426000e-03,-1.080000,-2.426000e-03,0.020000,-2.426000e-03,-1.000000,
-2.425500e-03,-1.080000,-2.425500e-03,0.020000,-2.425500e-03,-1.000000,
-2.425000e-03,-1.080000,-2.425000e-03,0.100000,-2.425000e-03,-1.000000,
-2.424500e-03,-1.080000,-2.424500e-03,-0.020000,-2.424500e-03,-1.000000,
-2.424000e-03,-1.120000,-2.424000e-03,0.120000,-2.424000e-03,-1.000000,
-2.423500e-03,-1.120000,-2.423500e-03,0.040000,-2.423500e-03,-1.000000,
-2.423000e-03,-1.120000,-2.423000e-03,0.160000,-2.423000e-03,-1.000000,
-2.422500e-03,-1.120000,-2.422500e-03,0.000000,-2.422500e-03,-1.200000,
-2.422000e-03,-1.120000,-2.422000e-03,0.040000,-2.422000e-03,-1.000000,
-2.421500e-03,-1.160000,-2.421500e-03,-0.040000,-2.421500e-03,-1.200000,
-2.421000e-03,-1.160000,-2.421000e-03,-0.060000,-2.421000e-03,-1.200000,
-2.420500e-03,-1.160000,-2.420500e-03,0.080000,-2.420500e-03,-1.000000,
-2.420000e-03,-1.160000,-2.420000e-03,0.060000,-2.420000e-03,-1.000000,
-2.419500e-03,-1.160000,-2.419500e-03,0.020000,-2.419500e-03,-1.200000,
-2.419000e-03,-1.160000,-2.419000e-03,0.120000,-2.419000e-03,-1.000000,
-2.418500e-03,-1.200000,-2.418500e-03,0.080000,-2.418500e-03,-1.200000,
-2.418000e-03,-1.200000,-2.418000e-03,0.120000,-2.418000e-03,-1.000000,
-2.417500e-03,-1.200000,-2.417500e-03,0.040000,-2.417500e-03,-1.200000,
-2.417000e-03,-1.200000,-2.417000e-03,0.120000,-2.417000e-03,-1.000000,
-2.416500e-03,-1.200000,-2.416500e-03,0.080000,-2.416500e-03,-1.200000,
-2.416000e-03,-1.240000,-2.416000e-03,-0.100000,-2.416000e-03,-1.400000,
-2.415500e-03,-1.240000,-2.415500e-03,0.000000,-2.415500e-03,-1.200000,
-2.415000e-03,-1.240000,-2.415000e-03,0.060000,-2.415000e-03,-1.200000,
-2.414500e-03,-1.240000,-2.414500e-03,0.120000,-2.414500e-03,-1.200000,
-2.414000e-03,-1.240000,-2.414000e-03,0.060000,-2.414000e-03,-1.200000,
-2.413500e-03,-1.240000,-2.413500e-03,0.000000,-2.413500e-03,-1.200000,
-2.413000e-03,-1.280000,-2.413000e-03,-0.020000,-2.413000e-03,-1.200000,
-2.412500e-03,-1.280000,-2.412500e-03,0.080000,-2.412500e-03,-1.200000,
-2.412000e-03,-1.280000,-2.412000e-03,0.020000,-2.412000e-03,-1.200000,
-2.411500e-03,-1.280000,-2.411500e-03,0.160000,-2.411500e-03,-1.200000,
-2.411000e-03,-1.280000,-2.411000e-03,0.160000,-2.411000e-03,-1.200000,
-2.410500e-03,-1.280000,-2.410500e-03,0.000000,-2.410500e-03,-1.200000,
-2.410000e-03,-1.280000,-2.410000e-03,0.120000,-2.410000e-03,-1.200000,
-2.409500e-03,-1.320000,-2.409500e-03,0.020000,-2.409500e-03,-1.200000,
-2.409000e-03,-1.320000,-2.409000e-03,0.060000,-2.409000e-03,-1.200000,
-2.408500e-03,-1.320000,-2.408500e-03,0.020000,-2.408500e-03,-1.200000,
-2.408000e-03,-1.320000,-2.408000e-03,0.100000,-2.408000e-03,-1.200000,
-2.407500e-03,-1.320000,-2.407500e-03,0.000000,-2.407500e-03,-1.400000,
-2.407000e-03,-1.320000,-2.407000e-03,0.040000,-2.407000e-03,-1.200000,
-2.406500e-03,-1.360000,-2.406500e-03,0.060000,-2.406500e-03,-1.200000,
-2.406000e-03,-1.360000,-2.406000e-03,-0.020000,-2.406000e-03,-1.400000,
-2.405500e-03,-1.360000,-2.405500e-03,0.040000,-2.405500e-03,-1.400000,
-2.405000e-03,-1.360000,-2.405000e-03,0.140000,-2.405000e-03,-1.200000,
-2.404500e-03,-1.360000,-2.404500e-03,0.220000,-2.404500e-03,-1.200000,
-2.404000e-03,-1.400000,-2.404000e-03,0.000000,-2.404000e-03,-1.400000,
-2.403500e-03,-1.400000,-2.403500e-03,0.080000,-2.403500e-03,-1.400000,
-2.403000e-03,-1.400000,-2.403000e-03,0.060000,-2.403000e-03,-1.400000,
-2.402500e-03,-1.400000,-2.402500e-03,0.060000,-2.402500e-03,-1.400000,
-2.402000e-03,-1.400000,-2.402000e-03,0.060000,-2.402000e-03,-1.400000,
-2.401500e-03,-1.400000,-2.401500e-03,-0.160000,-2.401500e-03,-1.600000,
-2.401000e-03,-1.440000,-2.401000e-03,0.100000,-2.401000e-03,-1.400000,
-2.400500e-03,-1.440000,-2.400500e-03,0.060000,-2.400500e-03,-1.400000,
-2.400000e-03,-1.440000,-2.400000e-03,0.020000,-2.400000e-03,-1.400000,
-2.399500e-03,-1.440000,-2.399500e-03,0.100000,-2.399500e-03,-1.400000,
-2.399000e-03,-1.440000,-2.399000e-03,0.000000,-2.399000e-03,-1.400000,
-2.398500e-03,-1.440000,-2.398500e-03,0.080000,-2.398500e-03,-1.400000,
-2.398000e-03,-1.480000,-2.398000e-03,0.000000,-2.398000e-03,-1.400000,
-2.397500e-03,-1.480000,-2.397500e-03,0.080000,-2.397500e-03,-1.400000,
-2.397000e-03,-1.480000,-2.397000e-03,0.160000,-2.397000e-03,-1.400000,
-2.396500e-03,-1.480000,-2.396500e-03,0.080000,-2.396500e-03,-1.400000,
-2.396000e-03,-1.480000,-2.396000e-03,0.120000,-2.396000e-03,-1.400000,
-2.395500e-03,-1.480000,-2.395500e-03,0.100000,-2.395500e-03,-1.400000,
-2.395000e-03,-1.480000,-2.395000e-03,0.080000,-2.395000e-03,-1.400000,
-2.394500e-03,-1.520000,-2.394500e-03,0.060000,-2.394500e-03,-1.400000,
-2.394000e-03,-1.520000,-2.394000e-03,0.000000,-2.394000e-03,-1.600000,
-2.393500e-03,-1.520000,-2.393500e-03,0.040000,-2.393500e-03,-1.400000,
-2.393000e-03,-1.520000,-2.393000e-03,0.060000,-2.393000e-03,-1.400000,
-2.392500e-03,-1.520000,-2.392500e-03,0.040000,-2.392500e-03,-1.400000,
-2.392000e-03,-1.520000,-2.392000e-03,0.140000,-2.392000e-03,-1.400000,
-2.391500e-03,-1.560000,-2.391500e-03,0.180000,-2.391500e-03,-1.400000,
-2.391000e-03,-1.560000,-2.391000e-03,0.140000,-2.391000e-03,-1.400000,
-2.390500e-03,-1.560000,-2.390500e-03,-0.020000,-2.390500e-03,-1.600000,
-2.390000e-03,-1.560000,-2.390000e-03,0.000000,-2.390000e-03,-1.600000,
-2.389500e-03,-1.560000,-2.389500e-03,0.040000,-2.389500e-03,-1.600000,
-2.389000e-03,-1.560000,-2.389000e-03,-0.020000,-2.389000e-03,-1.600000,
-2.388500e-03,-1.600000,-2.388500e-03,0.060000,-2.388500e-03,-1.600000,
-2.388000e-03,-1.600000,-2.388000e-03,0.020000,-2.388000e-03,-1.600000,
-2.387500e-03,-1.600000,-2.387500e-03,-0.020000,-2.387500e-03,-1.600000,
-2.387000e-03,-1.600000,-2.387000e-03,0.020000,-2.387000e-03,-1.600000,
-2.386500e-03,-1.600000,-2.386500e-03,-0.040000,-2.386500e-03,-1.600000,
-2.386000e-03,-1.600000,-2.386000e-03,0.060000,-2.386000e-03,-1.600000,
-2.385500e-03,-1.600000,-2.385500e-03,0.020000,-2.385500e-03,-1.600000,
-2.385000e-03,-1.640000,-2.385000e-03,0.040000,-2.385000e-03,-1.600000,
-2.384500e-03,-1.640000,-2.384500e-03,0.040000,-2.384500e-03,-1.600000,
-2.384000e-03,-1.640000,-2.384000e-03,0.020000,-2.384000e-03,-1.600000,
-2.383500e-03,-1.640000,-2.383500e-03,0.080000,-2.383500e-03,-1.600000,
-2.383000e-03,-1.640000,-2.383000e-03,-0.020000,-2.383000e-03,-1.600000,
-2.382500e-03,-1.640000,-2.382500e-03,0.060000,-2.382500e-03,-1.600000,
-2.382000e-03,-1.680000,-2.382000e-03,0.100000,-2.382000e-03,-1.600000,
-2.381500e-03,-1.640000,-2.381500e-03,0.020000,-2.381500e-03,-1.600000,
-2.381000e-03,-1.680000,-2.381000e-03,-0.060000,-2.381000e-03,-1.800000,
-2.380500e-03,-1.680000,-2.380500e-03,-0.060000,-2.380500e-03,-1.800000,
-2.380000e-03,-1.680000,-2.380000e-03,0.100000,-2.380000e-03,-1.600000,
-2.379500e-03,-1.680000,-2.379500e-03,0.060000,-2.379500e-03,-1.600000,
-2.379000e-03,-1.680000,-2.379000e-03,0.100000,-2.379000e-03,-1.600000,
-2.378500e-03,-1.720000,-2.378500e-03,0.020000,-2.378500e-03,-1.600000,
-2.378000e-03,-1.720000,-2.378000e-03,0.080000,-2.378000e-03,-1.600000,
-2.377500e-03,-1.720000,-2.377500e-03,0.000000,-2.377500e-03,-1.800000,
-2.377000e-03,-1.720000,-2.377000e-03,0.040000,-2.377000e-03,-1.600000,
-2.376500e-03,-1.720000,-2.376500e-03,0.080000,-2.376500e-03,-1.600000,
-2.376000e-03,-1.720000,-2.376000e-03,0.100000,-2.376000e-03,-1.600000,
-2.375500e-03,-1.760000,-2.375500e-03,0.000000,-2.375500e-03,-1.800000,
-2.375000e-03,-1.760000,-2.375000e-03,0.040000,-2.375000e-03,-1.800000,
-2.374500e-03,-1.720000,-2.374500e-03,0.120000,-2.374500e-03,-1.600000,
-2.374000e-03,-1.760000,-2.374000e-03,0.000000,-2.374000e-03,-1.800000,
-2.373500e-03,-1.760000,-2.373500e-03,-0.020000,-2.373500e-03,-1.800000,
-2.373000e-03,-1.760000,-2.373000e-03,0.040000,-2.373000e-03,-1.800000,
-2.372500e-03,-1.760000,-2.372500e-03,0.100000,-2.372500e-03,-1.600000,
